﻿2019-05-16T12:39:00.1639586+10:00;VSTestExecutionThread;Info;SpecFlow+Runner execution started
2019-05-16T12:39:00.1639586+10:00;VSTestExecutionThread;Info;SpecFlow+Runner 3.0.337 in Framework clr40 in x86 mode execution started
2019-05-16T12:39:00.1639586+10:00;VSTestExecutionThread;Info;TestAdapter Location: C:\Users\09946103\Downloads\kim_automation\packages\SpecRun.Runner.3.0.337\tools\net45\TechTalk.SpecRun.VisualStudio.TestAdapter.dll
2019-05-16T12:39:00.4861782+10:00;VSTestExecutionThread;Info;SpecRun: running tests in C:\Users\09946103\Downloads\kim_automation\KIM_Automation\bin\Debug\KIM_Automation.dll
2019-05-16T12:39:00.4861782+10:00;VSTestExecutionThread;Info;Output folder configured to "C:\Users\09946103\Downloads\kim_automation\TestResults" (default)
2019-05-16T12:39:00.4861782+10:00;VSTestExecutionThread;Info;Profile: KIM_Automation
2019-05-16T12:39:00.5151784+10:00;VSTestExecutionThread;Info;Log file path: C:\Users\09946103\Downloads\kim_automation\TestResults\KIM_Automation_KIM_Automation_2019-05-16T123900.log
2019-05-16T12:39:00.5252053+10:00;VSTestExecutionThread;Info;SpecFlow+Runner Evaluation Mode: Please purchase at http://www.specflow.org/plus to remove test execution delay.
2019-05-16T12:39:00.5332103+10:00;Thread#13;Info;Checking license
2019-05-16T12:39:00.5922103+10:00;Thread#13;Info;Evaluation mode: test execution starts in 11 seconds... (this delay is removed in the registered version)
2019-05-16T12:39:11.5939970+10:00;Thread#13;Info;Evaluation delay finished.
2019-05-16T12:39:11.6109829+10:00;Thread#13;Info;License check completed
2019-05-16T12:39:11.6119869+10:00;Thread#13;Info;starting test run
2019-05-16T12:39:11.6751182+10:00;Thread#13;Info;Discovering target: Default
2019-05-16T12:39:11.6751182+10:00;Thread#13;Info;Discovering tests from assembly: C:\Users\09946103\Downloads\kim_automation\KIM_Automation\bin\Debug\KIM_Automation.dll
2019-05-16T12:39:12.9892833+10:00:Appdomain Disposed
2019-05-16T12:39:12.9892833+10:00;Thread#13;Info;Discovered tests from assembly: C:\Users\09946103\Downloads\kim_automation\KIM_Automation\bin\Debug\KIM_Automation.dll
2019-05-16T12:39:12.9902851+10:00:Test Suite Dump
2019-05-16T12:39:12.9922873+10:00:#0: KIM_Automation/KIM_Automation - 
2019-05-16T12:39:12.9922873+10:00:#1: Default - 
2019-05-16T12:39:12.9922873+10:00:#2: KIM_Automation - 
2019-05-16T12:39:12.9922873+10:00:#3: Smoke Test - 
2019-05-16T12:39:13.0313135+10:00:#4: KIM end to end scenario - TestAssembly:KIM_Automation/Feature:Smoke+Test/Scenario:KIM+end+to+end+scenario
2019-05-16T12:39:13.0313135+10:00:End: Test Suite Dump
2019-05-16T12:39:13.0686820+10:00:Thread#0:Scheduler: get next test for thread 0
2019-05-16T12:39:13.0706834+10:00:Thread#:Scheduler: testitem #4 from normal test queue 
2019-05-16T12:39:13.0706834+10:00:Thread#0:Scheduler: considering testitem #4 for thread 0
2019-05-16T12:39:13.0766874+10:00:Thread#0:TestItem#4:testItemMatchesCurrentTestThread:UnSpecific
2019-05-16T12:39:13.0766874+10:00:Thread#0:TestItem#4:runsOnOneOtherThreadSpecific:False
2019-05-16T12:39:13.0766874+10:00:Thread#0:TestItem#4:runsOnOneOtherThreadUnspecific:False
2019-05-16T12:39:13.0766874+10:00:Thread#0:Scheduler: using testitem #4 for thread 0
2019-05-16T12:39:13.0776883+10:00:Thread#0:Scheduler: Test #4 is scheduled for thread
2019-05-16T12:39:13.0786892+10:00:Thread#0:Scheduler: with testItemExecutionIndex 0
2019-05-16T12:39:13.0816910+10:00:Thread #0: creating new test thread executor for KIM_Automation, Version=1.0.0.0, Culture=neutral, PublicKeyToken=null (target: Default)
2019-05-16T12:39:13.0846933+10:00:Thread #0: Creating test assembly executor for execution model AppDomain
2019-05-16T12:39:13.0856937+10:00:Thread #0: Creating test assembly executor for execution model AppDomain
2019-05-16T12:39:13.0856937+10:00:using TechTalk.SpecRun.Framework.Execution.InProcess.InProcAppDomainTestAssemblyExecutorHost to execute tests
2019-05-16T12:39:13.5472086+10:00:Thread#0: Test #4/0 is started on thread #0
2019-05-16T12:39:13.9877697+10:00:Thread#0:T:-> Loading plugin C:\Users\09946103\Downloads\kim_automation\KIM_Automation\bin\Debug\SpecRun.Runtime.SpecFlowPlugin.dll
2019-05-16T12:39:14.0147253+10:00:Thread#0:T:-> Using default config
2019-05-16T12:39:14.0762394+10:00:Thread#0:B:Given I navigate to Kim sharepoint aplication homepage
2019-05-16T12:39:33.6337011+10:00:Thread#0:T:done: SmokeKimSteps.GivenINavigateToKimSharepointAplicationHomepage() (19.4s)
2019-05-16T12:39:33.6367029+10:00:Thread#0:B:And I login using internal username and password
2019-05-16T12:39:44.1839181+10:00:Thread#0:T:done: SmokeKimSteps.GivenILoginUsingInternalUsernameAndPassword() (10.5s)
2019-05-16T12:39:44.1849186+10:00:Thread#0:B:When I press login button
2019-05-16T12:39:53.6745278+10:00:Thread#0:T:done: SmokeKimSteps.WhenIPressLoginButton() (9.5s)
2019-05-16T12:39:53.6745278+10:00:Thread#0:B:And I am logged in successfully
2019-05-16T12:39:59.2178631+10:00:Thread#0:T:done: SmokeKimSteps.WhenIAmLoggedInSuccessfully() (5.4s)
2019-05-16T12:39:59.2348784+10:00:Thread#0:B:And I click on service providers
2019-05-16T12:40:22.6616893+10:00:Thread#0:T:done: SmokeKimSteps.WhenIClickOnServiceProviders() (23.4s)
2019-05-16T12:40:22.7247326+10:00:Thread#0:B:And I search for an organisation and click on it
2019-05-16T12:40:28.0140274+10:00:Thread#0:T:done: SmokeKimSteps.WhenISearchForAnOrganisationAndClickOnIt() (5.3s)
2019-05-16T12:40:28.0280386+10:00:Thread#0:B:And I add a new service and fill in details and submit
2019-05-16T12:40:28.0330405+10:00:Thread#0:B:  --- table step argument ---
2019-05-16T12:40:28.0370427+10:00:Thread#0:B:  | Service Name             | Date Commence | Unit Number | Street        | Street Type | Suburb   | State | Postcode | LGA Code         | Telephone  | Email                               | Title Emergency | Given Name Emergency | Family Name Emergency | Email Emergency         | Position Emergency | Telephone Emergency | Mobile Emergency | Quality Rating |
2019-05-16T12:40:28.0430490+10:00:Thread#0:B:  | Moonee Kids Kindergarten | 01/06/2019    | 2           | Hoddle Street | ALLEY       | Essendon | VIC   | 3040     | Alpine (S) 20110 | 0469347402 | sikka.niharika.n@edumail.vic.gov.au | Mrs             | Niharika             | Sikka                 | niharikasikka@gmail.com | System Admin       | 0469347402          | 0469347402       | Excellent      |
2019-05-16T12:41:54.4189697+10:00:Thread#0:T:done: SmokeKimSteps.WhenIAddANewServiceAndFillInDetailsAndSubmit(<table>) (86.4s)
2019-05-16T12:41:54.4429825+10:00:Thread#0:B:And I logout of Kim sharepoint
2019-05-16T12:41:54.6511213+10:00:Thread#0:T:done: SmokeKimSteps.WhenILogoutOfKimSharepoint() (0.2s)
2019-05-16T12:41:54.6571254+10:00:Thread#0:B:And I go to manage job url and run the services batch job
2019-05-16T12:42:32.3968649+10:00:Thread#0:T:done: SmokeKimSteps.WhenIGoToManageJobUrlAndRunTheServicesBatchJob() (37.7s)
2019-05-16T12:42:32.4018722+10:00:Thread#0:B:And I logout of manage jobs
2019-05-16T12:42:32.9575961+10:00:Thread#0:T:done: SmokeKimSteps.WhenILogoutOfManageJobs() (0.5s)
2019-05-16T12:42:32.9696092+10:00:Thread#0:B:When I login to Kim crm and search for added service
2019-05-16T12:42:46.1311868+10:00:Thread#0:T:done: SmokeKimSteps.WhenILoginToKimCrmAndSearchForAddedService() (13.2s)
2019-05-16T12:42:46.1411914+10:00:Thread#0:B:And I enter missing data
2019-05-16T12:42:46.1471973+10:00:Thread#0:T:done: SmokeKimSteps.WhenIEnterMissingData() (0.0s)
2019-05-16T12:42:46.1532090+10:00:Thread#0:B:And I complete the pending tasks and approve
2019-05-16T12:42:46.1632082+10:00:Thread#0:T:done: SmokeKimSteps.WhenICompleteThePendingTasksAndApprove() (0.0s)
2019-05-16T12:42:46.1702159+10:00:Thread#0:B:And I logout of Kim crm
2019-05-16T12:42:46.1802214+10:00:Thread#0:T:done: SmokeKimSteps.WhenILogoutOfKimCrm() (0.0s)
2019-05-16T12:42:46.1892363+10:00:Thread#0:B:And I go to manage jobs to run the messages batch job
2019-05-16T12:43:05.0047896+10:00:Thread#0:T:done: SmokeKimSteps.WhenIGoToManageJobsToRunTheMessagesBatchJob() (18.8s)
2019-05-16T12:43:05.0087901+10:00:Thread#0:B:And I logout of manage jobs
2019-05-16T12:43:05.3536448+10:00:Thread#0:T:done: SmokeKimSteps.WhenILogoutOfManageJobs() (0.3s)
2019-05-16T12:43:05.3626511+10:00:Thread#0:B:Then I verify the service is added successfully to the organisation in Kim sharepoint
2019-05-16T12:43:05.3726571+10:00:Thread#0:T:done: SmokeKimSteps.ThenIVerifyTheServiceIsAddedSuccessfullyToTheOrganisationInKimSharepoint() (0.0s)
2019-05-16T12:43:05.3766594+10:00:Thread#0:B:And I add teachers, other educators, programs and enrolments for YBSK
2019-05-16T12:43:05.3816626+10:00:Thread#0:T:done: SmokeKimSteps.ThenIAddTeachersOtherEducatorsProgramsAndEnrolmentsForYBSK() (0.0s)
2019-05-16T12:43:05.3886685+10:00:Thread#0:B:And I go to manage jobs url and run the appropriate job
2019-05-16T12:43:05.3926717+10:00:Thread#0:T:done: SmokeKimSteps.ThenIGoToManageJobsUrlAndRunTheAppropriateJob() (0.0s)
2019-05-16T12:43:05.3956730+10:00:Thread#0:B:And I logout of manage jobs
2019-05-16T12:43:05.7339065+10:00:Thread#0:T:done: SmokeKimSteps.ThenILogoutOfManageJobs() (0.3s)
2019-05-16T12:43:05.7409106+10:00:Thread#0:B:And I verify the data in Kim crm and apporve
2019-05-16T12:43:05.7449129+10:00:Thread#0:T:done: SmokeKimSteps.ThenIVerifyTheDataInKimCrmAndApporve() (0.0s)
2019-05-16T12:43:05.7489170+10:00:Thread#0:B:And I logout of Kim crm
2019-05-16T12:43:06.1016585+10:00:Thread#0:T:error: no such element: Unable to locate element: {"method":"css selector","selector":"#zz16_Menu"}
2019-05-16T12:43:06.1056616+10:00:Thread#0:T:  (Session info: chrome=73.0.3683.103)
2019-05-16T12:43:06.1116631+10:00:Thread#0:T:  (Driver info: chromedriver=73.0.3683.68 (47787ec04b6e38e22703e856e101e840b65afe72),platform=Windows NT 10.0.15063 x86_64)
2019-05-16T12:43:06.1176667+10:00:Thread#0:B:And I verify the annual confirmation in Kim sharepoint
2019-05-16T12:43:06.1216699+10:00:Thread#0:T:skipped because of previous errors
2019-05-16T12:43:06.3137450+10:00:Thread#0:TestItem#4:Scheduler: reschedule tests for testitem #4
2019-05-16T12:43:06.3187482+10:00:Thread#0:Scheduler: get next test for thread 0
2019-05-16T12:43:06.3187482+10:00:Thread#:Scheduler: dequeuing a rescheduled testitem: #4
2019-05-16T12:43:06.3187482+10:00:Thread#0:Scheduler: considering testitem #4 for thread 0
2019-05-16T12:43:06.3187482+10:00:Thread#0:TestItem#4:testItemMatchesCurrentTestThread:UnSpecific
2019-05-16T12:43:06.3187482+10:00:Thread#0:TestItem#4:runsOnOneOtherThreadSpecific:False
2019-05-16T12:43:06.3187482+10:00:Thread#0:TestItem#4:runsOnOneOtherThreadUnspecific:False
2019-05-16T12:43:06.3187482+10:00:Thread#0:Scheduler: using testitem #4 for thread 0
2019-05-16T12:43:06.3187482+10:00:Thread#0:Scheduler: Test #4 is scheduled for thread
2019-05-16T12:43:06.3187482+10:00:Thread#0:Scheduler: with testItemExecutionIndex 1
2019-05-16T12:43:06.3387414+10:00:Thread#0: Test #4/0 is finished on thread #0 as Failed within 232.7905319 seconds
2019-05-16T12:43:06.3445130+10:00:Thread#0: Test #4/1 is started on thread #0
2019-05-16T12:43:06.3495184+10:00:Thread#0:B:Given I navigate to Kim sharepoint aplication homepage
2019-05-16T12:43:11.7995295+10:00:Thread#0:T:error: unknown error: cannot determine loading status
2019-05-16T12:43:11.8075345+10:00:Thread#0:T:from disconnected: received Inspector.detached event
2019-05-16T12:43:11.8175418+10:00:Thread#0:T:  (Session info: chrome=73.0.3683.103)
2019-05-16T12:43:11.8245611+10:00:Thread#0:T:  (Driver info: chromedriver=73.0.3683.68 (47787ec04b6e38e22703e856e101e840b65afe72),platform=Windows NT 10.0.15063 x86_64)
2019-05-16T12:43:11.8395591+10:00:Thread#0:B:And I login using internal username and password
2019-05-16T12:43:11.8535660+10:00:Thread#0:T:skipped because of previous errors
2019-05-16T12:43:11.8685765+10:00:Thread#0:B:When I press login button
2019-05-16T12:43:11.8765837+10:00:Thread#0:T:skipped because of previous errors
2019-05-16T12:43:11.8885906+10:00:Thread#0:B:And I am logged in successfully
2019-05-16T12:43:11.9015988+10:00:Thread#0:T:skipped because of previous errors
2019-05-16T12:43:11.9126084+10:00:Thread#0:B:And I click on service providers
2019-05-16T12:43:11.9186107+10:00:Thread#0:T:skipped because of previous errors
2019-05-16T12:43:11.9256157+10:00:Thread#0:B:And I search for an organisation and click on it
2019-05-16T12:43:11.9336225+10:00:Thread#0:T:skipped because of previous errors
2019-05-16T12:43:11.9406262+10:00:Thread#0:B:And I add a new service and fill in details and submit
2019-05-16T12:43:11.9476307+10:00:Thread#0:B:  --- table step argument ---
2019-05-16T12:43:11.9536344+10:00:Thread#0:B:  | Service Name             | Date Commence | Unit Number | Street        | Street Type | Suburb   | State | Postcode | LGA Code         | Telephone  | Email                               | Title Emergency | Given Name Emergency | Family Name Emergency | Email Emergency         | Position Emergency | Telephone Emergency | Mobile Emergency | Quality Rating |
2019-05-16T12:43:11.9576367+10:00:Thread#0:B:  | Moonee Kids Kindergarten | 01/06/2019    | 2           | Hoddle Street | ALLEY       | Essendon | VIC   | 3040     | Alpine (S) 20110 | 0469347402 | sikka.niharika.n@edumail.vic.gov.au | Mrs             | Niharika             | Sikka                 | niharikasikka@gmail.com | System Admin       | 0469347402          | 0469347402       | Excellent      |
2019-05-16T12:43:11.9636426+10:00:Thread#0:T:skipped because of previous errors
2019-05-16T12:43:11.9666431+10:00:Thread#0:B:And I logout of Kim sharepoint
2019-05-16T12:43:11.9706494+10:00:Thread#0:T:skipped because of previous errors
2019-05-16T12:43:11.9746485+10:00:Thread#0:B:And I go to manage job url and run the services batch job
2019-05-16T12:43:11.9796513+10:00:Thread#0:T:skipped because of previous errors
2019-05-16T12:43:11.9836554+10:00:Thread#0:B:And I logout of manage jobs
2019-05-16T12:43:11.9876594+10:00:Thread#0:T:skipped because of previous errors
2019-05-16T12:43:11.9916604+10:00:Thread#0:B:When I login to Kim crm and search for added service
2019-05-16T12:43:11.9976658+10:00:Thread#0:T:skipped because of previous errors
2019-05-16T12:43:12.0016690+10:00:Thread#0:B:And I enter missing data
2019-05-16T12:43:12.0056704+10:00:Thread#0:T:skipped because of previous errors
2019-05-16T12:43:12.0096732+10:00:Thread#0:B:And I complete the pending tasks and approve
2019-05-16T12:43:12.0146759+10:00:Thread#0:T:skipped because of previous errors
2019-05-16T12:43:12.0176777+10:00:Thread#0:B:And I logout of Kim crm
2019-05-16T12:43:12.0216818+10:00:Thread#0:T:skipped because of previous errors
2019-05-16T12:43:12.0246832+10:00:Thread#0:B:And I go to manage jobs to run the messages batch job
2019-05-16T12:43:12.0306882+10:00:Thread#0:T:skipped because of previous errors
2019-05-16T12:43:12.0356909+10:00:Thread#0:B:And I logout of manage jobs
2019-05-16T12:43:12.0396937+10:00:Thread#0:T:skipped because of previous errors
2019-05-16T12:43:12.0446978+10:00:Thread#0:B:Then I verify the service is added successfully to the organisation in Kim sharepoint
2019-05-16T12:43:12.0487005+10:00:Thread#0:T:skipped because of previous errors
2019-05-16T12:43:12.0527028+10:00:Thread#0:B:And I add teachers, other educators, programs and enrolments for YBSK
2019-05-16T12:43:12.0567046+10:00:Thread#0:T:skipped because of previous errors
2019-05-16T12:43:12.0637110+10:00:Thread#0:B:And I go to manage jobs url and run the appropriate job
2019-05-16T12:43:12.0707147+10:00:Thread#0:T:skipped because of previous errors
2019-05-16T12:43:12.0747174+10:00:Thread#0:B:And I logout of manage jobs
2019-05-16T12:43:12.0797210+10:00:Thread#0:T:skipped because of previous errors
2019-05-16T12:43:12.0827233+10:00:Thread#0:B:And I verify the data in Kim crm and apporve
2019-05-16T12:43:12.0857243+10:00:Thread#0:T:skipped because of previous errors
2019-05-16T12:43:12.0897270+10:00:Thread#0:B:And I logout of Kim crm
2019-05-16T12:43:12.0957315+10:00:Thread#0:T:skipped because of previous errors
2019-05-16T12:43:12.1007347+10:00:Thread#0:B:And I verify the annual confirmation in Kim sharepoint
2019-05-16T12:43:12.1037370+10:00:Thread#0:T:skipped because of previous errors
2019-05-16T12:43:12.1147461+10:00:Thread#0:Scheduler: get next test for thread 0
2019-05-16T12:43:12.1147461+10:00:Thread#:Scheduler: dequeuing a rescheduled testitem: #4
2019-05-16T12:43:12.1147461+10:00:Thread#0:Scheduler: considering testitem #4 for thread 0
2019-05-16T12:43:12.1147461+10:00:Thread#0:TestItem#4:testItemMatchesCurrentTestThread:UnSpecific
2019-05-16T12:43:12.1147461+10:00:Thread#0:TestItem#4:runsOnOneOtherThreadSpecific:False
2019-05-16T12:43:12.1147461+10:00:Thread#0:TestItem#4:runsOnOneOtherThreadUnspecific:False
2019-05-16T12:43:12.1147461+10:00:Thread#0:Scheduler: using testitem #4 for thread 0
2019-05-16T12:43:12.1147461+10:00:Thread#0:Scheduler: Test #4 is scheduled for thread
2019-05-16T12:43:12.1147461+10:00:Thread#0:Scheduler: with testItemExecutionIndex 2
2019-05-16T12:43:12.1217493+10:00:Thread#0: Test #4/1 is finished on thread #0 as Failed within 5.7762354 seconds
2019-05-16T12:43:12.1277543+10:00:Thread#0: Test #4/2 is started on thread #0
2019-05-16T12:43:12.1337580+10:00:Thread#0:B:Given I navigate to Kim sharepoint aplication homepage
2019-05-16T12:43:18.2829369+10:00:Thread#0:T:error: unknown error: unhandled inspector error: {"code":-32000,"message":"No target with given id"}
2019-05-16T12:43:18.2929451+10:00:Thread#0:T:  (Session info: chrome=73.0.3683.103)
2019-05-16T12:43:18.2989474+10:00:Thread#0:T:  (Driver info: chromedriver=73.0.3683.68 (47787ec04b6e38e22703e856e101e840b65afe72),platform=Windows NT 10.0.15063 x86_64)
2019-05-16T12:43:18.3069533+10:00:Thread#0:B:And I login using internal username and password
2019-05-16T12:43:18.3109560+10:00:Thread#0:T:skipped because of previous errors
2019-05-16T12:43:18.3159592+10:00:Thread#0:B:When I press login button
2019-05-16T12:43:18.3229647+10:00:Thread#0:T:skipped because of previous errors
2019-05-16T12:43:18.3279675+10:00:Thread#0:B:And I am logged in successfully
2019-05-16T12:43:18.3319706+10:00:Thread#0:T:skipped because of previous errors
2019-05-16T12:43:18.3519843+10:00:Thread#0:B:And I click on service providers
2019-05-16T12:43:18.3599893+10:00:Thread#0:T:skipped because of previous errors
2019-05-16T12:43:18.3649930+10:00:Thread#0:B:And I search for an organisation and click on it
2019-05-16T12:43:18.3679948+10:00:Thread#0:T:skipped because of previous errors
2019-05-16T12:43:18.3729989+10:00:Thread#0:B:And I add a new service and fill in details and submit
2019-05-16T12:43:18.3759998+10:00:Thread#0:B:  --- table step argument ---
2019-05-16T12:43:18.3820044+10:00:Thread#0:B:  | Service Name             | Date Commence | Unit Number | Street        | Street Type | Suburb   | State | Postcode | LGA Code         | Telephone  | Email                               | Title Emergency | Given Name Emergency | Family Name Emergency | Email Emergency         | Position Emergency | Telephone Emergency | Mobile Emergency | Quality Rating |
2019-05-16T12:43:18.3860076+10:00:Thread#0:B:  | Moonee Kids Kindergarten | 01/06/2019    | 2           | Hoddle Street | ALLEY       | Essendon | VIC   | 3040     | Alpine (S) 20110 | 0469347402 | sikka.niharika.n@edumail.vic.gov.au | Mrs             | Niharika             | Sikka                 | niharikasikka@gmail.com | System Admin       | 0469347402          | 0469347402       | Excellent      |
2019-05-16T12:43:18.3910121+10:00:Thread#0:T:skipped because of previous errors
2019-05-16T12:43:18.3960144+10:00:Thread#0:B:And I logout of Kim sharepoint
2019-05-16T12:43:18.4000163+10:00:Thread#0:T:skipped because of previous errors
2019-05-16T12:43:18.4080231+10:00:Thread#0:B:And I go to manage job url and run the services batch job
2019-05-16T12:43:18.4120258+10:00:Thread#0:T:skipped because of previous errors
2019-05-16T12:43:18.4160276+10:00:Thread#0:B:And I logout of manage jobs
2019-05-16T12:43:18.4200317+10:00:Thread#0:T:skipped because of previous errors
2019-05-16T12:43:18.4240336+10:00:Thread#0:B:When I login to Kim crm and search for added service
2019-05-16T12:43:18.4280363+10:00:Thread#0:T:skipped because of previous errors
2019-05-16T12:43:18.4320386+10:00:Thread#0:B:And I enter missing data
2019-05-16T12:43:18.4370445+10:00:Thread#0:T:skipped because of previous errors
2019-05-16T12:43:18.4440468+10:00:Thread#0:B:And I complete the pending tasks and approve
2019-05-16T12:43:18.4480495+10:00:Thread#0:T:skipped because of previous errors
2019-05-16T12:43:18.4520536+10:00:Thread#0:B:And I logout of Kim crm
2019-05-16T12:43:18.4580559+10:00:Thread#0:T:skipped because of previous errors
2019-05-16T12:43:18.4610582+10:00:Thread#0:B:And I go to manage jobs to run the messages batch job
2019-05-16T12:43:18.4650609+10:00:Thread#0:T:skipped because of previous errors
2019-05-16T12:43:18.4680632+10:00:Thread#0:B:And I logout of manage jobs
2019-05-16T12:43:18.4750682+10:00:Thread#0:T:skipped because of previous errors
2019-05-16T12:43:18.4790705+10:00:Thread#0:B:Then I verify the service is added successfully to the organisation in Kim sharepoint
2019-05-16T12:43:18.4830733+10:00:Thread#0:T:skipped because of previous errors
2019-05-16T12:43:18.4870764+10:00:Thread#0:B:And I add teachers, other educators, programs and enrolments for YBSK
2019-05-16T12:43:18.4910796+10:00:Thread#0:T:skipped because of previous errors
2019-05-16T12:43:18.4940810+10:00:Thread#0:B:And I go to manage jobs url and run the appropriate job
2019-05-16T12:43:18.4980833+10:00:Thread#0:T:skipped because of previous errors
2019-05-16T12:43:18.5011083+10:00:Thread#0:B:And I logout of manage jobs
2019-05-16T12:43:18.5091143+10:00:Thread#0:T:skipped because of previous errors
2019-05-16T12:43:18.5121156+10:00:Thread#0:B:And I verify the data in Kim crm and apporve
2019-05-16T12:43:18.5160965+10:00:Thread#0:T:skipped because of previous errors
2019-05-16T12:43:18.5221024+10:00:Thread#0:B:And I logout of Kim crm
2019-05-16T12:43:18.5291052+10:00:Thread#0:T:skipped because of previous errors
2019-05-16T12:43:18.5331079+10:00:Thread#0:B:And I verify the annual confirmation in Kim sharepoint
2019-05-16T12:43:18.5381120+10:00:Thread#0:T:skipped because of previous errors
2019-05-16T12:43:18.5461389+10:00:Thread#0:Scheduler: get next test for thread 0
2019-05-16T12:43:18.5461389+10:00:Thread#:Scheduler: at the end of normal test queue
2019-05-16T12:43:18.5461389+10:00:Thread#0:Scheduler: enumerator for thread is at end
2019-05-16T12:43:18.5471166+10:00:Thread#0:Scheduler: No more tests for thread
2019-05-16T12:43:18.5521220+10:00:Thread#0: Test #4/2 is finished on thread #0 as Failed within 6.4243677 seconds
2019-05-16T12:43:18.6349568+10:00:Appdomain Disposed
2019-05-16T12:43:18.6379591+10:00:Trying to cancel thread
2019-05-16T12:43:18.6379591+10:00:Thread cancelled
2019-05-16T12:43:18.6479650+10:00:Thread#-1:Scheduler: get next test for thread -1
2019-05-16T12:43:18.6479650+10:00:Thread#:Scheduler: at the end of normal test queue
2019-05-16T12:43:18.6479650+10:00:Thread#-1:Scheduler: enumerator for thread is at end
2019-05-16T12:43:18.7261897+10:00;Thread#13;Info;test run finished
2019-05-16T12:43:18.7271906+10:00;Thread#13;Info;publishing test results
2019-05-16T12:43:18.9610535+10:00;Thread#13;Info;test results published
2019-05-16T12:43:18.9610535+10:00;Thread#13;Info;generating reports
2019-05-16T12:43:19.5312516+10:00;Thread#13;Info;Starting external report generation process
2019-05-16T12:43:35.8658861+10:00;Thread#13;Info;Successfully generated reports.
2019-05-16T12:43:35.8688880+10:00;Thread#13;Info;Successfully generated reports
2019-05-16T12:43:35.8869007+10:00:Total: 1 (test executions: 3)
2019-05-16T12:43:35.8909030+10:00:Succeeded: 0
2019-05-16T12:43:35.8909030+10:00:Ignored: 0
2019-05-16T12:43:35.8919035+10:00:Pending: 0
2019-05-16T12:43:35.8919035+10:00:Skipped: 0
2019-05-16T12:43:35.8929039+10:00:Failed: 1
2019-05-16T12:43:35.9069153+10:00;VSTestExecutionThread;Info;Adding attachments to VSTest
2019-05-16T12:43:35.9069153+10:00;VSTestExecutionThread;Info;adding Test Execution Report 'C:\Users\09946103\Downloads\kim_automation\TestResults\KIM_Automation_KIM_Automation_2019-05-16T123900.html'
========== End of log file ==========
